2. Get Data • SEQKoalaDataPipeline
…
master <- fcn_all_tables()

Summary statistics can be produced of the full table. For example, to
count the number of koalas sighted in each LGA.

summary_table <- fcn_summarise_sightings(c('LGA', 'Method', 'db'))
#> Warning: The `.dots` argument of `group_by()` is deprecated as of dplyr 1.0.0.
#> i The deprecated feature was likely used in the dplyr package.
#>   Please report the issue at <https://github.com/tidyverse/dplyr/issues>.
#> This warning is displayed once every 8 hours.
#> Call `lifecycle::last_lifecycle_warnings()` to see where this warning was generated.
summary_table
#> # A tibble: 27 x 4
#> # Groups:   LGA, Method [26]
#>    LGA            Method         db        Sightings
#>    <chr>          <chr>          <chr>         <int>
#>  1 Brisbane       line_transect  2020-cur         33
#>  2 Brisbane       strip_transect 1996-2015       743
#>  3 Brisbane       uaoa           1996-2015         0
#>  4 Gold Coast     line_transect  2020-cur         41
#>  5 Gold Coast     strip_transect 1996-2015        29
#>  6 Gold Coast     uaoa           1996-2015        24
#>  7 Ipswich        line_transect  2020-cur         47
#>  8 Ipswich        strip_transect 1996-2015        37
#>  9 Ipswich        uaoa           1996-2015         3
#> 10 Lockyer Valley line_transect  2020-cur          6
#> # i 17 more rows
…
